{
  "getCountCheckInOutChildren" : {
    "transaction" : "getCountCheckInOutChildren",
    "sampleCount" : 993,
    "errorCount" : 0,
    "errorPct" : 0.0,
    "meanResTime" : 1509.774420946626,
    "medianResTime" : 1539.0,
    "minResTime" : 510.0,
    "maxResTime" : 2898.0,
    "pct1ResTime" : 1940.8000000000002,
    "pct2ResTime" : 2030.0999999999997,
    "pct3ResTime" : 2425.319999999996,
    "throughput" : 3.300011963789597,
    "receivedKBytesPerSec" : 2.0850661529022156,
    "sentKBytesPerSec" : 4.150796298204102
  },
  "getLatestMobileVersion" : {
    "transaction" : "getLatestMobileVersion",
    "sampleCount" : 15202,
    "errorCount" : 0,
    "errorPct" : 0.0,
    "meanResTime" : 97.80864359952696,
    "medianResTime" : 61.0,
    "minResTime" : 13.0,
    "maxResTime" : 1308.0,
    "pct1ResTime" : 209.0,
    "pct2ResTime" : 239.0,
    "pct3ResTime" : 296.0,
    "throughput" : 50.694963184291964,
    "receivedKBytesPerSec" : 33.91215798949218,
    "sentKBytesPerSec" : 37.37763398841839
  },
  "findAllConfigByCategory" : {
    "transaction" : "findAllConfigByCategory",
    "sampleCount" : 6854,
    "errorCount" : 0,
    "errorPct" : 0.0,
    "meanResTime" : 217.85220309308423,
    "medianResTime" : 181.0,
    "minResTime" : 25.0,
    "maxResTime" : 2027.0,
    "pct1ResTime" : 322.0,
    "pct2ResTime" : 432.0,
    "pct3ResTime" : 897.5999999999985,
    "throughput" : 22.849789471227734,
    "receivedKBytesPerSec" : 25.839898640314175,
    "sentKBytesPerSec" : 29.677949215559458
  },
  "getNotifications" : {
    "transaction" : "getNotifications",
    "sampleCount" : 5313,
    "errorCount" : 0,
    "errorPct" : 0.0,
    "meanResTime" : 281.2930547713161,
    "medianResTime" : 216.0,
    "minResTime" : 70.0,
    "maxResTime" : 2309.0,
    "pct1ResTime" : 476.0,
    "pct2ResTime" : 663.2000000000007,
    "pct3ResTime" : 1266.7199999999993,
    "throughput" : 17.71088554427721,
    "receivedKBytesPerSec" : 150.31768189972,
    "sentKBytesPerSec" : 19.699901010675532
  },
  "getHomefeed" : {
    "transaction" : "getHomefeed",
    "sampleCount" : 99,
    "errorCount" : 0,
    "errorPct" : 0.0,
    "meanResTime" : 15311.050505050505,
    "medianResTime" : 15602.0,
    "minResTime" : 5710.0,
    "maxResTime" : 17847.0,
    "pct1ResTime" : 16948.0,
    "pct2ResTime" : 17101.0,
    "pct3ResTime" : 17847.0,
    "throughput" : 0.3248393849707645,
    "receivedKBytesPerSec" : 5.681199751407637,
    "sentKBytesPerSec" : 1.6254658287013641
  },
  "Total" : {
    "transaction" : "Total",
    "sampleCount" : 54894,
    "errorCount" : 0,
    "errorPct" : 0.0,
    "meanResTime" : 272.7233213101611,
    "medianResTime" : 165.0,
    "minResTime" : 13.0,
    "maxResTime" : 17847.0,
    "pct1ResTime" : 330.0,
    "pct2ResTime" : 610.0,
    "pct3ResTime" : 1932.9900000000016,
    "throughput" : 180.11674415705008,
    "receivedKBytesPerSec" : 819.478585240994,
    "sentKBytesPerSec" : 268.8280054166024
  },
  "me" : {
    "transaction" : "me",
    "sampleCount" : 5705,
    "errorCount" : 0,
    "errorPct" : 0.0,
    "meanResTime" : 261.94303242769445,
    "medianResTime" : 209.0,
    "minResTime" : 72.0,
    "maxResTime" : 2138.0,
    "pct1ResTime" : 419.0,
    "pct2ResTime" : 571.0,
    "pct3ResTime" : 1108.8799999999992,
    "throughput" : 19.01837832071553,
    "receivedKBytesPerSec" : 25.094579475694477,
    "sentKBytesPerSec" : 60.6582261674384
  },
  "getAllClassInfo" : {
    "transaction" : "getAllClassInfo",
    "sampleCount" : 7871,
    "errorCount" : 0,
    "errorPct" : 0.0,
    "meanResTime" : 189.546055139118,
    "medianResTime" : 171.0,
    "minResTime" : 20.0,
    "maxResTime" : 1903.0,
    "pct1ResTime" : 272.0,
    "pct2ResTime" : 343.0,
    "pct3ResTime" : 723.3999999999987,
    "throughput" : 26.24725305873369,
    "receivedKBytesPerSec" : 15.174193174580413,
    "sentKBytesPerSec" : 67.38674637833093
  },
  "findAllChildrenByParent" : {
    "transaction" : "findAllChildrenByParent",
    "sampleCount" : 5910,
    "errorCount" : 0,
    "errorPct" : 0.0,
    "meanResTime" : 252.851945854484,
    "medianResTime" : 199.0,
    "minResTime" : 51.0,
    "maxResTime" : 2297.0,
    "pct1ResTime" : 403.0,
    "pct2ResTime" : 557.4499999999998,
    "pct3ResTime" : 1094.9000000000033,
    "throughput" : 19.70164180348362,
    "receivedKBytesPerSec" : 22.125867259771645,
    "sentKBytesPerSec" : 31.47645116259688
  },
  "findAllSchoolConfig" : {
    "transaction" : "findAllSchoolConfig",
    "sampleCount" : 6632,
    "errorCount" : 0,
    "errorPct" : 0.0,
    "meanResTime" : 225.22527141133887,
    "medianResTime" : 191.5,
    "minResTime" : 43.0,
    "maxResTime" : 2166.0,
    "pct1ResTime" : 323.0,
    "pct2ResTime" : 436.34999999999945,
    "pct3ResTime" : 864.6900000000005,
    "throughput" : 22.109540906984574,
    "receivedKBytesPerSec" : 482.1779956394331,
    "sentKBytesPerSec" : 16.21510275502482
  },
  "getChildCheckInCheckOut" : {
    "transaction" : "getChildCheckInCheckOut",
    "sampleCount" : 315,
    "errorCount" : 0,
    "errorPct" : 0.0,
    "meanResTime" : 4784.022222222218,
    "medianResTime" : 4773.0,
    "minResTime" : 2987.0,
    "maxResTime" : 6208.0,
    "pct1ResTime" : 5182.8,
    "pct2ResTime" : 5291.6,
    "pct3ResTime" : 5715.559999999998,
    "throughput" : 1.0395456360534228,
    "receivedKBytesPerSec" : 69.40083820070326,
    "sentKBytesPerSec" : 4.804853022891455
  }
}